<svg xmlns="http://www.w3.org/2000/svg" width="24" height="24" viewBox="0 0 24 24">
    <g fill="#000" fill-rule="nonzero">
        <path d="M7 19a1 1 0 0 1-.71-1.71l10-10a1.004 1.004 0 0 1 1.42 1.42l-10 10A1 1 0 0 1 7 19z"/>
        <path d="M17 19a1 1 0 0 1-.71-.29l-10-10a1.004 1.004 0 0 1 1.42-1.42l10 10A1 1 0 0 1 17 19z"/>
    </g>
</svg>
